{
    "role": {
        "name": "Grants and removes a role from your user",
        "text": "`?role <role>`\n\nThis command is used to grant or revoke a role from your account.  If you do not have the role you will be given it.  If you have the role it will be removed.\n\nValid <role>s:\n* `builders`\n* `techies`\n* `coders`\n* `linux`\n* `overclockers`\n* `freegames`\n* `mac-os`"
    },
    "search": {
        "aliases": [
            "ddg",
            "google",
            "yt", "youtube",
            "bing",
            "sp", "startpage",
            "gh", "github",
            "aw", "archwiki",
            "itad", "deal", "isthereanydeal",
            "pcgw", "pcgamingwiki",
            "pdb", "proton", "protondb",
            "gpt"
        ],
        "name": "Search for something for someone",
        "text": "`?search [thing]`\n\nDid someone ask a very easily searchable question?  Reply with this command to link it to them."
    },
    "isdown": {
        "name": "Is <thing> down?",
        "text": "`?isdown <thing>`\n\nLinks to downdetector for <thing>, or if <thing> has its own status page, links to that."
    },
    "curator": {
        "name": "PCMR Curator link",
        "text": "`?curator`\n\nLinks to the PCMR Steam Curator"
    },
    "twitter": {
        "name": "PCMR Twitter link",
        "text": "`?twitter`\n\nLinks to the PCMR Twitter account"
    },
    "facebook": {
        "name": "PCMR Facebook Group link",
        "text": "`?facebook`\n\nLinks to the PCMR Facebook group"
    },
    "instagram": {
        "name": "PCMR Instagram page",
        "text": "`?instagram`\n\nLinks to the PCMR Instagram page"
    },
    "help": {
        "name": "Bot Help Documentation",
        "text": "`?help`\n\nLinks to the PCMRBot help page"
    }
}